%YAML 1.1
%TAG !u! tag:unity3d.com,2011:
--- !u!1045 &1
EditorBuildSettings:
  m_ObjectHideFlags: 0
  serializedVersion: 2
  m_Scenes:
  - enabled: 1
    path: Assets/Menu.unity
    guid: 83502f0f7469b224abf731c71620ec46
  - enabled: 1
    path: Assets/Instrucciones.unity
    guid: 31ccd2bd675df664185d424f0c33d626
  - enabled: 1
    path: Assets/Game.unity
    guid: 2f45ba0f56b8b914bb414b7c4fb7ce8f
  - enabled: 1
    path: Assets/FinalError.unity
    guid: 158c4f27fae26534e80811faa981e50d
  - enabled: 1
    path: Assets/FinalMessage.unity
    guid: e305743e53effa742a5dfc70922f4e1f
  - enabled: 1
    path: Assets/Credits.unity
    guid: 1bf48f24c8c23ba4dac0f9f688a492b6
